<define-tag pagetitle>DSA-4613-1 libidn2</define-tag>
<define-tag report_date>2020-2-01</define-tag>
<define-tag secrefs>CVE-2019-18224 Bug#942895</define-tag>
<define-tag packages>libidn2</define-tag>
<define-tag isvulnerable>yes</define-tag>
<define-tag fixed>yes</define-tag>
<define-tag fixed-section>no</define-tag>

#use wml::debian::security



</dl>
