<define-tag pagetitle>DLA-1082-1 graphicsmagick</define-tag>
<define-tag report_date>2017-8-31</define-tag>
<define-tag secrefs>CVE-2017-12935 CVE-2017-12936 CVE-2017-12937 CVE-2017-13063 CVE-2017-13064 CVE-2017-13065 CVE-2017-13776 CVE-2017-13777</define-tag>
<define-tag packages>graphicsmagick</define-tag>
<define-tag isvulnerable>yes</define-tag>
<define-tag fixed>yes</define-tag>
<define-tag fixed-section>no</define-tag>

#use wml::debian::security

