<define-tag pagetitle>DLA-1019-1 phpldapadmin</define-tag>
<define-tag report_date>2017-7-9</define-tag>
<define-tag secrefs>CVE-2017-11107 Bug##867719</define-tag>
<define-tag packages>phpldapadmin</define-tag>
<define-tag isvulnerable>yes</define-tag>
<define-tag fixed>yes</define-tag>
<define-tag fixed-section>no</define-tag>

#use wml::debian::security

