<define-tag pagetitle>DLA-1451-1 wireshark</define-tag>
<define-tag report_date>2018-7-29</define-tag>
<define-tag secrefs>CVE-2018-14339 CVE-2018-14340 CVE-2018-14341 CVE-2018-14342 CVE-2018-14343 CVE-2018-14368 CVE-2018-14369</define-tag>
<define-tag packages>wireshark</define-tag>
<define-tag isvulnerable>yes</define-tag>
<define-tag fixed>yes</define-tag>
<define-tag fixed-section>no</define-tag>

#use wml::debian::security

