<define-tag pagetitle>DLA-1500-2 openssh</define-tag>
<define-tag report_date>2018-9-12</define-tag>
<define-tag secrefs>Bug#908652</define-tag>
<define-tag packages>openssh</define-tag>
<define-tag isvulnerable>yes</define-tag>
<define-tag fixed>yes</define-tag>
<define-tag fixed-section>no</define-tag>

#use wml::debian::security

