<define-tag pagetitle>DLA-1606-1 gcc-4.9</define-tag>
<define-tag report_date>2018-12-14</define-tag>
<define-tag secrefs>Bug#727621</define-tag>
<define-tag packages>gcc-4.9</define-tag>
<define-tag isvulnerable>yes</define-tag>
<define-tag fixed>yes</define-tag>
<define-tag fixed-section>no</define-tag>

#use wml::debian::security

