<define-tag pagetitle>DLA-1795-1 graphicsmagick</define-tag>
<define-tag report_date>2019-05-21</define-tag>
<define-tag secrefs>CVE-2019-11473 CVE-2019-11474 CVE-2019-11505 CVE-2019-11506</define-tag>
<define-tag packages>graphicsmagick</define-tag>
<define-tag isvulnerable>yes</define-tag>
<define-tag fixed>yes</define-tag>
<define-tag fixed-section>no</define-tag>

#use wml::debian::security

