<define-tag pagetitle>DLA-2043-1 gdk-pixbuf</define-tag>
<define-tag report_date>2019-12-19</define-tag>
<define-tag secrefs>CVE-2016-6352 CVE-2017-2870 CVE-2017-6312 CVE-2017-6313 CVE-2017-6314</define-tag>
<define-tag packages>gdk-pixbuf</define-tag>
<define-tag isvulnerable>yes</define-tag>
<define-tag fixed>yes</define-tag>
<define-tag fixed-section>no</define-tag>

#use wml::debian::security

