<define-tag pagetitle>DLA-449-2 botan1.10</define-tag>
<define-tag report_date>2016-5-10</define-tag>
<define-tag secrefs>Bug#823297</define-tag>
<define-tag packages>botan1.10</define-tag>
<define-tag isvulnerable>yes</define-tag>
<define-tag fixed>yes</define-tag>
<define-tag fixed-section>no</define-tag>

#use wml::debian::security

